…
    ## Warning: There was 1 warning in `mutate()`.
    ## ℹ In argument: `proportionCI = map(city_state, ~cities_prop(.x,
    ##   homicide_data))`.
    ## Caused by warning in `prop.test()`:
    ## ! Chi-squared approximation may be incorrect

``` r
final_results
```

    ## # A tibble: 51 × 5
    ##    city_state      conf_low conf_high sample_estimate ci                        
    ##    <fct>              <dbl>     <dbl>           <dbl> <chr>                     
    ##  1 Albuquerque, NM  0.105     0.177            0.138  0.10530080373043, 0.17739…
    ##  2 Atlanta, GA      0.0459    0.0769           0.0596 0.045940933343347, 0.0768…
    ##  3 Baltimore, MD    0.0459    0.0629           0.0538 0.0458779828113626, 0.062…
    ##  4 Baton Rouge, LA  0.0225    0.0618           0.0377 0.0224544641838181, 0.061…
    ##  5 Birmingham, AL   0.0626    0.102            0.08   0.0625900337053163, 0.101…
    ##  6 Boston, MA       0         0.00775          0      0, 0.00775106363845387    
    ##  7 Buffalo, NY      0.00716   0.0313           0.0154 0.00715707945226999, 0.03…
    ##  8 Charlotte, NC    0.0474    0.0857           0.0640 0.0474251307407314, 0.085…
    ##  9 Chicago, IL      0.0634    0.0770           0.0699 0.0634083273304678, 0.077…
    ## 10 Cincinnati, OH   0.0532    0.0929           0.0706 0.053188812448726, 0.0929…
    ## # ℹ 41 more rows
…
